%YAML 1.1
%TAG !u! tag:unity3d.com,2011:
--- !u!114 &11400000
MonoBehaviour:
  m_ObjectHideFlags: 0
  m_PrefabParentObject: {fileID: 0}
  m_PrefabInternal: {fileID: 0}
  m_GameObject: {fileID: 0}
  m_Enabled: 1
  m_EditorHideFlags: 0
  m_Script: {fileID: 11500000, guid: 1c4368cdb2e90e349b9d40eb850293f6, type: 3}
  m_Name: EMailSettings_Orientation
  m_EditorClassIdentifier: 
  sendHost: smtp.ualr.edu
  sendPort: 587
  accountUser: eac-trojanman
  accountPassword: Ye=982bK2667G84Gde
  emailSubject: Orientation UA Little Rock - Your TrojanMan Picture
  emailFrom: Orientation UA Little Rock <eac-trojanman@ualr.edu>
  emailReplyTo: Orientation UA Little Rock <newstudents@ualr.edu>
  emailBody: "Hello,\nthank you for using the UA Little Rock \"TrojanMan AR\" application.
    Please find your picture attached to this email! \n\n--\nOrientation University
    of Arkansas at Little Rock\nnewstudents@ualr.edu\n\nEmerging Analytics Center\nUniversity
    of Arkansas at Little Rock \n2801 South University Ave\nEIT Building, 4th Floor\nLittle
    Rock, AR 72204\n(501) 569-8140\neacinfo@ualr.edu\n"
