%YAML 1.1
%TAG !u! tag:unity3d.com,2011:
--- !u!114 &11400000
MonoBehaviour:
  m_ObjectHideFlags: 0
  m_PrefabParentObject: {fileID: 0}
  m_PrefabInternal: {fileID: 0}
  m_GameObject: {fileID: 0}
  m_Enabled: 1
  m_EditorHideFlags: 0
  m_Script: {fileID: 11500000, guid: 1c4368cdb2e90e349b9d40eb850293f6, type: 3}
  m_Name: EMailSettings_TrojanMan_UALR
  m_EditorClassIdentifier: 
  sendHost: smtp.ualr.edu
  sendPort: 587
  accountUser: eac-trojanman
  accountPassword: Ye=982bK2667G84Gde
  emailSubject: UA Little Rock - TrojanMan
  emailFrom: EAC TrojanMan AR <eac-trojanman@ualr.edu>
  emailReplyTo: eac.trojanman@gmail.com
  emailBody: 'Hello,

    testing eac-trojanman@ualr.edu account.

'
